%YAML 1.1
%TAG !u! tag:unity3d.com,2011:
--- !u!1045 &1
EditorBuildSettings:
  m_ObjectHideFlags: 0
  serializedVersion: 2
  m_Scenes: []
  m_configObjects:
    com.unity.xr.management.loader_settings: {fileID: 11400000, guid: 0ce0bafb0b84cc14fabb91c936d8bdc7,
      type: 2}
